{
  "version": 2,
  "name": "vue",
  "alias": "cryptolab.now.sh",
  "builds": [
    {
      "src": "package.json",
      "use": "@now/static-build"
    }
  ],
  "routes": [
    {
      "src": "^/js/(.*)",
      "headers": {
        "cache-control": "max-age=31536000,immutable"
      },
      "dest": "/js/$1"
    },
    {
      "src": "^/css/(.*)",
      "headers": {
        "cache-control": "max-age=31536000,immutable"
      },
      "dest": "/css/$1"
    },
    {
      "src": ".*",
      "headers": {
        "cache-control": "max-age=0,must-revalidate"
      },
      "dest": "/index.html"
    }
  ]
}
